[gd_scene load_steps=3 format=2]

[ext_resource path="res://src/Components/Trail.cs" type="Script" id=1]

[sub_resource type="Gradient" id=1]

offsets = PoolRealArray( 0, 1 )
colors = PoolColorArray( 1, 1, 1, 0, 1, 1, 1, 1 )

[node name="Trail" type="Line2D"]

z_index = -1
points = PoolVector2Array(  )
width = 10.0
default_color = Color( 0.4, 0.5, 1, 1 )
gradient = SubResource( 1 )
texture_mode = 34559424
sharp_limit = 2.0
round_precision = 8
script = ExtResource( 1 )
_sections_unfolded = [ "Fill", "Z Index" ]
trailLenght = 0


