[gd_scene load_steps=3 format=2]

[ext_resource path="res://src/tools/EntityManager/Core/Component.tscn" type="PackedScene" id=1]
[ext_resource path="res://src/Core/Interfaces/Implementations/Usable/DefaultUsable.cs" type="Script" id=2]

[node name="Usable" index="0" instance=ExtResource( 1 )]

script = ExtResource( 2 )


